<?xml version="1.0" encoding="UTF-8"?>
<svg width="25px" height="26px" viewBox="0 0 25 26" version="1.1" xmlns="http://www.w3.org/2000/svg" xmlns:xlink="http://www.w3.org/1999/xlink">
    <!-- Generator: sketchtool 52.4 (67378) - http://www.bohemiancoding.com/sketch -->
    <title>2AB5F757-6429-40B9-837A-0F08A42C229C</title>
    <desc>Created with sketchtool.</desc>
    <g id="Advertiser" stroke="none" stroke-width="1" fill="none" fill-rule="evenodd">
        <g id="sign-up" transform="translate(-1246.000000, -522.000000)" fill="#EDEDED" fill-rule="nonzero" stroke="#EDEDED" stroke-width="0.818181818">
            <g id="right" transform="translate(870.000000, 150.000000)">
                <g id="password-copy" transform="translate(0.000000, 360.000000)">
                    <g id="password_icon" transform="translate(377.000000, 13.000000)">
                        <path d="M9.15675154,2.33768179 C12.319518,-0.779227264 17.4651587,-0.779227264 20.6279252,2.33768179 C23.7906916,5.45459085 23.7906916,10.5256242 20.6279252,13.6425333 C17.7441541,16.4844922 13.2163179,16.7259315 10.0416706,14.3854235 L7.6809451,16.6888186 L8.20534161,17.2056118 C8.65786691,17.6515759 8.65786691,18.3746265 8.20534161,18.8205906 C7.7528163,19.2665547 7.01912782,19.2665547 6.56660252,18.8205906 L6.04220601,18.3037974 L4.40346692,19.9187762 L6.56660252,22.0505482 C7.01912782,22.4965122 7.01912782,23.2195629 6.56660252,23.6655269 C6.11407721,24.111491 5.38038873,24.111491 4.92786343,23.6655269 L2.76472783,21.5337549 L1.97813307,22.3089448 C1.52560776,22.7549088 0.791919282,22.7549088 0.339393978,22.3089448 C-0.113131326,21.8629807 -0.113131326,21.1399301 0.339393978,20.693966 L8.40293156,12.7704447 C6.02798893,9.64182709 6.27298043,5.17964071 9.15675154,2.33768179 Z M18.9891861,12.0275545 C21.2481879,9.80130625 21.2481879,6.17890883 18.9891861,3.95266058 C16.7301842,1.72641232 13.0544925,1.72641232 10.7954906,3.95266058 C8.53648879,6.17890883 8.53648879,9.80130625 10.7954906,12.0275545 C13.0544925,14.2538028 16.7301842,14.2538028 18.9891861,12.0275545 Z" id="Shape"></path>
                    </g>
                </g>
            </g>
        </g>
    </g>
</svg>